{
    "@class": "com.kony.gen.viz.model.component.KVizUserWidget",
    "DNDConfig": null,
    "__parentReadjusting__": false,
    "_android_": {},
    "_androidwearos_": {},
    "_children_": [],
    "_desktopweb_": {},
    "_height_": {
        "type": "string",
        "value": "8%"
    },
    "_ipad_": {},
    "_iphone_": {},
    "_kiosk_": {},
    "_left_": {
        "type": "string",
        "value": "0.00%"
    },
    "_margin_": [
        0,
        0,
        0,
        0
    ],
    "_orientation_": 1,
    "_padding_": [
        0,
        0,
        0,
        0
    ],
    "_percent_": true,
    "_skin_": "s29ec53f7ea14b5cafb1cf1bc80ec786",
    "_spa_": {},
    "_spaan_": {},
    "_spaandroidtablet_": {},
    "_spabb_": {},
    "_spaip_": {},
    "_spaipad_": {},
    "_spamobile_": {},
    "_spatablet_": {},
    "_spawindowstablet_": {},
    "_spawinphone8_": {},
    "_tabrcandroid_": {},
    "_top_": {
        "type": "string",
        "value": "0%"
    },
    "_vizProps_": {
        "hidewidgethierarchy": false
    },
    "_width_": {
        "type": "string",
        "value": "100%"
    },
    "_windows10_": {},
    "_windows8_": {},
    "_winphone10_": {},
    "_winphone8_": {},
    "areflexpropsreferenced": false,
    "autogrowmode": 0,
    "canUpdateUI": true,
    "clipbounds": true,
    "containerweight": 0,
    "dataDiffs": {
        "HeaderLocator": {
            "__events__": {},
            "__info__": {
                "isRoot": true,
                "kuid": "h7eaf6ebccd94fb78933f2a424842669",
                "srcKUID": "a8ff1ab4c4e249088741a141a07077a9",
                "wType": "FlexContainer"
            },
            "autogrowMode": {
                "Default": 0
            },
            "height": {
                "Default": {
                    "type": "string",
                    "value": "8%"
                }
            }
        },
        "btnMenu": {
            "__events__": {},
            "__info__": {
                "kuid": "c992390be62e48a0a10d5616c0131723",
                "srcKUID": "i09aa4dd43324a8bb4c8b1746985281f",
                "wType": "Button"
            },
            "zIndex": {
                "Default": 2
            }
        },
        "flxAlign": {
            "__events__": {},
            "__info__": {
                "kuid": "g0c18594a1e243a194cdba12cf946bc3",
                "srcKUID": "a863663c572a4fc3817dcbe0f4fc2bb3",
                "wType": "FlexContainer"
            }
        },
        "flxLine": {
            "__events__": {},
            "__info__": {
                "kuid": "icd86f5eb0f140bbb91c4a4f515a057d",
                "srcKUID": "b1cd8d7153b7428f97b75f74a1ec44b2",
                "wType": "FlexContainer"
            }
        },
        "flxLogo": {
            "__events__": {},
            "__info__": {
                "kuid": "f733a3af48cb4008b7b3663f24d9e090",
                "srcKUID": "d68bc9de14074f46930e19285431347a",
                "wType": "FlexContainer"
            }
        },
        "flxToggleMenu": {
            "__events__": {},
            "__info__": {
                "kuid": "a4a301643ed64d2ea1e7db71e51efb8c",
                "srcKUID": "ceb821170fd04ad49f7f4d4645044192",
                "wType": "FlexContainer"
            }
        },
        "imgLogo": {
            "__events__": {},
            "__info__": {
                "kuid": "b57f3fec16464a138470783c619471b7",
                "srcKUID": "e8d054f4cb544baab3e3729aa40a85fc",
                "wType": "Image"
            }
        },
        "imgMenu": {
            "__events__": {},
            "__info__": {
                "kuid": "a248687f9d2d414099201404a87f83db",
                "srcKUID": "d51142905eb2497fb276b26c73610912",
                "wType": "Image"
            }
        }
    },
    "enablescrolling": true,
    "id": "HeaderLocator",
    "info": null,
    "iscustomlayout": false,
    "isdatareferenced": false,
    "issegmentchild": false,
    "isvisible": true,
    "kuid": "h7eaf6ebccd94fb78933f2a424842669",
    "layouttype": 2,
    "masterType": 0,
    "name": "kony.ui.UserWidgetInstance",
    "parent": "flxMain",
    "pf": "frmShopCart",
    "retaincontentalignment": false,
    "retainflexpositionproperties": false,
    "retainflowhorizontalalignment": false,
    "snapgridsize": 10,
    "snaptogrid": true,
    "sourceUserWidget": "a8ff1ab4c4e249088741a141a07077a9",
    "wType": "UserWidgetInstance"
}