{
    "@class": "com.kony.gen.viz.model.component.KVizUserWidget",
    "DNDConfig": null,
    "__parentReadjusting__": false,
    "_android_": {},
    "_androidwearos_": {},
    "_children_": [],
    "_desktopweb_": {},
    "_height_": {
        "type": "string",
        "value": "100%"
    },
    "_ipad_": {},
    "_iphone_": {},
    "_kiosk_": {},
    "_left_": {
        "type": "string",
        "value": "-100%"
    },
    "_margin_": [
        0,
        0,
        0,
        0
    ],
    "_orientation_": 1,
    "_padding_": [
        0,
        0,
        0,
        0
    ],
    "_percent_": true,
    "_skin_": "sb5849d948d849cc8a39b623e69be60b",
    "_spa_": {},
    "_spaan_": {},
    "_spaandroidtablet_": {},
    "_spabb_": {},
    "_spaip_": {},
    "_spaipad_": {},
    "_spamobile_": {},
    "_spatablet_": {},
    "_spawindowstablet_": {},
    "_spawinphone8_": {},
    "_tabrcandroid_": {},
    "_top_": {
        "type": "string",
        "value": "0dp"
    },
    "_vizProps_": {
        "hidewidgethierarchy": false
    },
    "_width_": {
        "type": "string",
        "value": "100%"
    },
    "_windows10_": {},
    "_windows8_": {},
    "_winphone10_": {},
    "_winphone8_": {},
    "areflexpropsreferenced": false,
    "canUpdateUI": true,
    "clipbounds": true,
    "containerweight": 0,
    "dataDiffs": {
        "Menu": {
            "__events__": {},
            "__info__": {
                "isRoot": true,
                "kuid": "a848a6d47eb34e648d67ca3009124f43",
                "srcKUID": "b42173fb255740e99abd300a2168b691",
                "wType": "FlexContainer"
            }
        },
        "btnCart": {
            "__events__": {},
            "__info__": {
                "kuid": "e862afa805784e30a33e28f61f3f0e7d",
                "srcKUID": "a86cb689a02f481ab691d7a139b1e373",
                "wType": "Button"
            }
        },
        "btnHome": {
            "__events__": {},
            "__info__": {
                "kuid": "dd42ad4bc92249dda810f1d568808f0b",
                "srcKUID": "ha301df113214c369fef70378e63fe88",
                "wType": "Button"
            }
        },
        "btnStores": {
            "__events__": {},
            "__info__": {
                "kuid": "e5d6f270d144472fa6185d395d9f8f70",
                "srcKUID": "c0cad9e87a2a479d901e24f4652e707b",
                "wType": "Button"
            }
        },
        "flxBody": {
            "__events__": {},
            "__info__": {
                "kuid": "gc4e6113023b4ed2a6bafaf45626dc61",
                "srcKUID": "c6a85411da42419586ec5950eaa89a4a",
                "wType": "FlexContainer"
            }
        },
        "flxCart": {
            "__events__": {},
            "__info__": {
                "kuid": "d525c21ef18240e1bb522da78b221533",
                "srcKUID": "fbdfba9cfb0a4bdda2688cd4971faa91",
                "wType": "FlexContainer"
            }
        },
        "flxHome": {
            "__events__": {},
            "__info__": {
                "kuid": "e31039f09bc24d85a3395107a3e0efff",
                "srcKUID": "e7bafb2d38f04843a83e0652d4da6d99",
                "wType": "FlexContainer"
            }
        },
        "flxLineCart": {
            "__events__": {},
            "__info__": {
                "kuid": "ff3d5655fa254bc2be42133e545ce564",
                "srcKUID": "efba60d7f93f45e68c5f904deebdd244",
                "wType": "FlexContainer"
            }
        },
        "flxLineHome": {
            "__events__": {},
            "__info__": {
                "kuid": "ada58ab9278840ab9d8ff7d385fb34f5",
                "srcKUID": "gd5dcba8bbf14f008b7e73340362d6e8",
                "wType": "FlexContainer"
            }
        },
        "flxLineStores": {
            "__events__": {},
            "__info__": {
                "kuid": "eecfcebcc0a54a6d9b717dd769a50e69",
                "srcKUID": "a3d12bbe1c314647b62314d96a8fbf85",
                "wType": "FlexContainer"
            }
        },
        "flxOverlay": {
            "__events__": {},
            "__info__": {
                "kuid": "dae0cc697bd340e88bdf500e1d121293",
                "srcKUID": "d2f0bcd1b15c4657a7d099cbb318c9ea",
                "wType": "FlexContainer"
            }
        },
        "flxStores": {
            "__events__": {},
            "__info__": {
                "kuid": "ec3d063f06b14848babf26e7a2b4059c",
                "srcKUID": "i2a5a573046a4581810b3bdf6ad505b9",
                "wType": "FlexContainer"
            }
        },
        "imgCart": {
            "__events__": {},
            "__info__": {
                "kuid": "h9cecb80eebe41c89eb7acb2d4bc9ab4",
                "srcKUID": "ae89081cb85943939a8368288792d883",
                "wType": "Image"
            }
        },
        "imgHome": {
            "__events__": {},
            "__info__": {
                "kuid": "b535d0db710a4988a1793ee161e1478d",
                "srcKUID": "g97d18a0255e4190bfff79ed8b4103df",
                "wType": "Image"
            }
        },
        "imgStores": {
            "__events__": {},
            "__info__": {
                "kuid": "i4fe5dc7607740f48a1edf752c9c5cf8",
                "srcKUID": "c9240ccf0b2a4cd69e935a6d066ce019",
                "wType": "Image"
            }
        },
        "lblCart": {
            "__events__": {},
            "__info__": {
                "kuid": "d41f1a2672c14092851805a77e4e2180",
                "srcKUID": "h3388b67e5bc40a688244e99b42dcfe2",
                "wType": "Label"
            }
        },
        "lblHome": {
            "__events__": {},
            "__info__": {
                "kuid": "a83fd090cd0547ca8178a1598f83ba8c",
                "srcKUID": "f9cc0042fdb0452e9e7619e37a48c123",
                "wType": "Label"
            }
        },
        "lblStores": {
            "__events__": {},
            "__info__": {
                "kuid": "b3ed5f7eb7ca49aa9e7c51dd3c9af206",
                "srcKUID": "g0fe1981f79045678efe6c9af139861d",
                "wType": "Label"
            }
        }
    },
    "enablescrolling": true,
    "id": "Menu",
    "info": null,
    "iscustomlayout": false,
    "isdatareferenced": false,
    "isvisible": true,
    "kuid": "a848a6d47eb34e648d67ca3009124f43",
    "layouttype": 3,
    "masterType": 0,
    "name": "kony.ui.UserWidgetInstance",
    "parent": "frmShopCart",
    "pf": "frmShopCart",
    "retaincontentalignment": false,
    "retainflexpositionproperties": false,
    "retainflowhorizontalalignment": false,
    "snapgridsize": 10,
    "snaptogrid": true,
    "sourceUserWidget": "b42173fb255740e99abd300a2168b691",
    "wType": "UserWidgetInstance"
}