{
    "@class": "com.kony.gen.viz.model.component.KVizImage2",
    "DNDConfig": null,
    "__parentReadjusting__": false,
    "_base64_": null,
    "_height_": {
        "type": "string",
        "value": "62.42%"
    },
    "_left_": {
        "type": "string",
        "value": "6.00%"
    },
    "_margin_": [
        0,
        0,
        0,
        0
    ],
    "_padding_": [
        0,
        0,
        0,
        0
    ],
    "_skin_": "sc7143c7fc264253926ae209c29f0e5e",
    "_src_": "tv.png",
    "_top_": {
        "type": "string",
        "value": "3%"
    },
    "_width_": {
        "type": "string",
        "value": "80.00%"
    },
    "canUpdateUI": true,
    "centery": {
        "type": "string",
        "value": "40.32%"
    },
    "containerweight": 100,
    "context": {
        "channel": "mobile",
        "formID": "frmProductsDetail",
        "platform": "iphone",
        "templateType": "forms",
        "topLevelBox": null
    },
    "id": "imgProduct",
    "imagescalemode": 0,
    "info": null,
    "invokedProperty": "src",
    "iscustomlayout": false,
    "isvisible": true,
    "kuid": "e6122c58a1a841aba5889e6ba58bce86",
    "name": "kony.ui.Image2",
    "parent": "flxImage",
    "pf": "frmProductsDetail",
    "retaincontentalignment": false,
    "retainflexpositionproperties": false,
    "srcType": 1,
    "wType": "Image",
    "widgetalignment": 5,
    "zindex": 1
}