{
    "@class": "com.kony.gen.viz.model.container.KVizSegment2",
    "DNDConfig": null,
    "__parentReadjusting__": false,
    "_data_": [
        {
            "revDesc": {
                "@class": "com.viz.ide.model.segment.SimpleTextSegmentData",
                "text": "Transfered all my home movies. Easy to use. Awesome."
            },
            "revRating": {
                "@class": "com.viz.ide.model.segment.ImageSegmentData",
                "src": "ratings_star_4.png"
            },
            "revSubmit": {
                "@class": "com.viz.ide.model.segment.SimpleTextSegmentData",
                "text": "submitted by: Dmmnz"
            },
            "revTitle": {
                "@class": "com.viz.ide.model.segment.SimpleTextSegmentData",
                "text": "Great"
            }
        },
        {
            "revDesc": {
                "@class": "com.viz.ide.model.segment.SimpleTextSegmentData",
                "text": "Transfered all my home movies. Easy to use. Awesome."
            },
            "revRating": {
                "@class": "com.viz.ide.model.segment.ImageSegmentData",
                "src": "ratings_star_4.png"
            },
            "revSubmit": {
                "@class": "com.viz.ide.model.segment.SimpleTextSegmentData",
                "text": "submitted by: Dmmnz"
            },
            "revTitle": {
                "@class": "com.viz.ide.model.segment.SimpleTextSegmentData",
                "text": "Great"
            }
        },
        {
            "revDesc": {
                "@class": "com.viz.ide.model.segment.SimpleTextSegmentData",
                "text": "Transfered all my home movies. Easy to use. Awesome."
            },
            "revRating": {
                "@class": "com.viz.ide.model.segment.ImageSegmentData",
                "src": "ratings_star_4.png"
            },
            "revSubmit": {
                "@class": "com.viz.ide.model.segment.SimpleTextSegmentData",
                "text": "submitted by: Dmmnz"
            },
            "revTitle": {
                "@class": "com.viz.ide.model.segment.SimpleTextSegmentData",
                "text": "Great"
            }
        },
        {
            "revDesc": {
                "@class": "com.viz.ide.model.segment.SimpleTextSegmentData",
                "text": "Transfered all my home movies. Easy to use. Awesome."
            },
            "revRating": {
                "@class": "com.viz.ide.model.segment.ImageSegmentData",
                "src": "ratings_star_4.png"
            },
            "revSubmit": {
                "@class": "com.viz.ide.model.segment.SimpleTextSegmentData",
                "text": "submitted by: Dmmnz"
            },
            "revTitle": {
                "@class": "com.viz.ide.model.segment.SimpleTextSegmentData",
                "text": "Great"
            }
        },
        {
            "revDesc": {
                "@class": "com.viz.ide.model.segment.SimpleTextSegmentData",
                "text": "Transfered all my home movies. Easy to use. Awesome."
            },
            "revRating": {
                "@class": "com.viz.ide.model.segment.ImageSegmentData",
                "src": "ratings_star_4.png"
            },
            "revSubmit": {
                "@class": "com.viz.ide.model.segment.SimpleTextSegmentData",
                "text": "submitted by: Dmmnz"
            },
            "revTitle": {
                "@class": "com.viz.ide.model.segment.SimpleTextSegmentData",
                "text": "Great"
            }
        },
        {
            "revDesc": {
                "@class": "com.viz.ide.model.segment.SimpleTextSegmentData",
                "text": "Transfered all my home movies. Easy to use. Awesome."
            },
            "revRating": {
                "@class": "com.viz.ide.model.segment.ImageSegmentData",
                "src": "ratings_star_4.png"
            },
            "revSubmit": {
                "@class": "com.viz.ide.model.segment.SimpleTextSegmentData",
                "text": "submitted by: Dmmnz"
            },
            "revTitle": {
                "@class": "com.viz.ide.model.segment.SimpleTextSegmentData",
                "text": "Great"
            }
        },
        {
            "revDesc": {
                "@class": "com.viz.ide.model.segment.SimpleTextSegmentData",
                "text": "Transfered all my home movies. Easy to use. Awesome."
            },
            "revRating": {
                "@class": "com.viz.ide.model.segment.ImageSegmentData",
                "src": "ratings_star_4.png"
            },
            "revSubmit": {
                "@class": "com.viz.ide.model.segment.SimpleTextSegmentData",
                "text": "submitted by: Dmmnz"
            },
            "revTitle": {
                "@class": "com.viz.ide.model.segment.SimpleTextSegmentData",
                "text": "Great"
            }
        },
        {
            "revDesc": {
                "@class": "com.viz.ide.model.segment.SimpleTextSegmentData",
                "text": "Transfered all my home movies. Easy to use. Awesome."
            },
            "revRating": {
                "@class": "com.viz.ide.model.segment.ImageSegmentData",
                "src": "ratings_star_4.png"
            },
            "revSubmit": {
                "@class": "com.viz.ide.model.segment.SimpleTextSegmentData",
                "text": "submitted by: Dmmnz"
            },
            "revTitle": {
                "@class": "com.viz.ide.model.segment.SimpleTextSegmentData",
                "text": "Great"
            }
        },
        {
            "revDesc": {
                "@class": "com.viz.ide.model.segment.SimpleTextSegmentData",
                "text": "Transfered all my home movies. Easy to use. Awesome."
            },
            "revRating": {
                "@class": "com.viz.ide.model.segment.ImageSegmentData",
                "src": "ratings_star_4.png"
            },
            "revSubmit": {
                "@class": "com.viz.ide.model.segment.SimpleTextSegmentData",
                "text": "submitted by: Dmmnz"
            },
            "revTitle": {
                "@class": "com.viz.ide.model.segment.SimpleTextSegmentData",
                "text": "Great"
            }
        },
        {
            "revDesc": {
                "@class": "com.viz.ide.model.segment.SimpleTextSegmentData",
                "text": "Transfered all my home movies. Easy to use. Awesome."
            },
            "revRating": {
                "@class": "com.viz.ide.model.segment.ImageSegmentData",
                "src": "ratings_star_4.png"
            },
            "revSubmit": {
                "@class": "com.viz.ide.model.segment.SimpleTextSegmentData",
                "text": "submitted by: Dmmnz"
            },
            "revTitle": {
                "@class": "com.viz.ide.model.segment.SimpleTextSegmentData",
                "text": "Great"
            }
        }
    ],
    "_height_": {
        "type": "string",
        "value": "99.51%"
    },
    "_indicator_": "none",
    "_left_": {
        "type": "string",
        "value": "0dp"
    },
    "_margin_": [
        0,
        0,
        0,
        0
    ],
    "_orientation_": 2,
    "_padding_": [
        0,
        0,
        0,
        0
    ],
    "_top_": {
        "type": "string",
        "value": "0dp"
    },
    "_width_": {
        "type": "string",
        "value": "100%"
    },
    "autogrowmode": 0,
    "canUpdateUI": true,
    "containerweight": 100,
    "counter": "09",
    "focusedindex": null,
    "focuseditem": null,
    "groupcells": false,
    "hasSections": false,
    "id": "segUserReviews",
    "info": null,
    "ipad": {
        "psp": {
            "indicator": "rowselect"
        }
    },
    "iphone": {
        "psp": {
            "indicator": "rowselect"
        }
    },
    "iscustomlayout": false,
    "isvisible": true,
    "kuid": "ec2d21fc26074787bc94882be93c9602",
    "masterdata": {},
    "name": "kony.ui.SegmentedUI2",
    "needpageindicator": true,
    "pageoffdotimage": "pageoffdot.png",
    "pageondotimage": "pageondot.png",
    "paginationconfig": {
        "position": "bottom",
        "vdistance": 1
    },
    "parent": "flxReviewContainer",
    "pf": "frmProductsDetail",
    "retaincontentalignment": false,
    "retainflexpositionproperties": false,
    "retainselection": false,
    "rowTemplateId": "f040156693964769ae85e32fb5257f69",
    "rowcounter": 9,
    "rowfocusskin": "sd255480cfe5489ea13e3d473cc5b3ae",
    "rowskin": "s8a7f27018f847b285cb3d350d9d1028",
    "rowtemplate": "flxRowReviews",
    "screenlevelwidget": false,
    "seccounter": 0,
    "sectionheaderskin": "sbe66b52366a44e08d504e9c7efe7ca1",
    "selectedRows": null,
    "selectedState": false,
    "selectedindex": null,
    "selectedindices": null,
    "selecteditems": null,
    "selectedsectionindex": 0,
    "selectionbehavior": "default",
    "selectionbehaviorconfig": null,
    "separatorrequired": true,
    "separatorthickness": 0,
    "showscrollbars": false,
    "swipeContext": {
        "currentPage": 0,
        "imageWidth": 1081,
        "widthRatio": 0
    },
    "viewtype": "pageview",
    "vizProps": {},
    "wType": "Segment",
    "widgetalignment": 5,
    "widgetdatamap": {
        "flxRowReviews": "flxRowReviews",
        "revDesc": "revDesc",
        "revRating": "revRating",
        "revSubmit": "revSubmit",
        "revTitle": "revTitle"
    },
    "zindex": 1
}