{
    "@class": "com.kony.gen.viz.model.component.KVizButton",
    "DNDConfig": null,
    "__parentReadjusting__": false,
    "_height_": {
        "type": "string",
        "value": "100%"
    },
    "_left_": {
        "type": "string",
        "value": "0dp"
    },
    "_margin_": [
        6,
        6,
        6,
        6
    ],
    "_padding_": [
        0,
        0,
        0,
        0
    ],
    "_skin_": "sdc55a9be67d4fdab4841452ea3d7328",
    "_text_": "",
    "_top_": {
        "type": "string",
        "value": "0dp"
    },
    "_width_": {
        "type": "string",
        "value": "100%"
    },
    "canUpdateUI": true,
    "containerweight": 100,
    "contentalignment": 5,
    "disabledSkins": {},
    "displaytext": true,
    "focusskin": "sd1ea42d5fdb43328fac55131f53b1b3",
    "id": "btnMenu",
    "ide_onClick": "AS_Button_gb04a7d1922647fd9123df9020ffdc81",
    "info": null,
    "iscustomlayout": false,
    "isvisible": true,
    "kuid": "i09aa4dd43324a8bb4c8b1746985281f",
    "name": "kony.ui.Button",
    "parent": "flxToggleMenu",
    "pf": "userwidgetmodel",
    "retaincontentalignment": false,
    "retainflexpositionproperties": false,
    "wType": "Button",
    "zindex": 1
}