{
  "android": {
    "font_name": "default",
    "font_size": 125,
    "isForked": false
  },
  "androidwearos": {
    "font_name": "default",
    "font_size": 161,
    "isForked": false
  },
  "background_color": "00000000",
  "bg_type": "one",
  "border_color": "424242ff",
  "border_style": "plain",
  "border_type": 0,
  "border_width": 0,
  "desktopweb": {
    "font_name": "Helvetica",
    "font_size": 281,
    "isForked": false
  },
  "fontSizeInPx": true,
  "font_color": "1e1efaff",
  "font_name": "iphoneSystem",
  "font_size": 125,
  "font_style": "normal",
  "font_weight": "normal",
  "ipad": {
    "font_name": "System",
    "font_size": 161,
    "isForked": false
  },
  "iphone": {
    "font_name": "System",
    "font_size": 113,
    "isForked": false
  },
  "isDefaultSkin": false,
  "kiosk": {
    "font_name": "None",
    "font_size": 281,
    "isForked": false
  },
  "kuid": "s0f14e6bf85d40f19cbcebb8b7f86466",
  "spaan": {
    "font_name": "Helvetica",
    "font_size": 115,
    "isForked": false
  },
  "spaandroidtablet": {
    "font_name": "Helvetica",
    "font_size": 96,
    "isForked": false
  },
  "spabb": {
    "font_name": "Helvetica",
    "font_size": 144,
    "isForked": false
  },
  "spaip": {
    "font_name": "Helvetica",
    "font_size": 123,
    "isForked": false
  },
  "spaipad": {
    "font_name": "Helvetica",
    "font_size": 102,
    "isForked": false
  },
  "spawindowstablet": {
    "font_name": "Helvetica",
    "font_size": 102,
    "isForked": false
  },
  "spawinphone8": {
    "font_name": "Helvetica",
    "font_size": 144,
    "isForked": false
  },
  "tabrcandroid": {
    "font_name": "default",
    "font_size": 267,
    "isForked": false
  },
  "wType": "Label",
  "watchos": {
    "font_name": "System",
    "font_size": 161,
    "isForked": false
  },
  "windows8": {
    "font_name": "None",
    "font_size": 110,
    "isForked": false
  },
  "winphone8": {
    "font_name": "None",
    "font_size": 150,
    "isForked": false
  }
}