{
  "android": {
    "background_color": {
      "angle": 180,
      "colors": [
        "bcecfcff",
        "79bbffff",
        "1668baff"
      ],
      "cs": [
        0,
        43,
        85
      ],
      "gradientType": "toBottom",
      "gt": "linear"
    },
    "background_style": "linear",
    "bg_type": "ms_gradient",
    "border_color": "00000099",
    "border_style": "rc",
    "border_type": 0,
    "border_width": 2,
    "font_name": "default",
    "isForked": true
  },
  "androidwearos": {
    "background_color": {
      "angle": 180,
      "colors": [
        "bcecfcff",
        "79bbffff",
        "1668baff"
      ],
      "cs": [
        0,
        43,
        85
      ],
      "gradientType": "toBottom",
      "gt": "linear"
    },
    "background_style": "linear",
    "bg_type": "ms_gradient",
    "border_color": "00000099",
    "border_style": "rc",
    "border_type": 0,
    "border_width": 2,
    "font_name": "default",
    "isForked": true
  },
  "background_gradient_bottom_color": "2a80dbff",
  "background_gradient_top_color": "5c87dbff",
  "background_style": "vs",
  "bg_type": "two",
  "border_color": "000000a5",
  "border_radius": 9,
  "border_style": "custom",
  "border_type": 0,
  "border_width": 1,
  "desktopweb": {
    "background_color": {
      "angle": 180,
      "colors": [
        "bcecfcff",
        "79bbffff",
        "1668baff"
      ],
      "cs": [
        0,
        43,
        85
      ],
      "gradientType": "toBottom",
      "gt": "linear"
    },
    "background_style": "linear",
    "bg_type": "ms_gradient",
    "bottom_left_border_color": "000000a5",
    "bottom_left_border_style": "plain",
    "bottom_left_border_width": 1,
    "bottom_right_border_color": "000000a5",
    "bottom_right_border_style": "plain",
    "bottom_right_border_width": 1,
    "font_name": "Arial",
    "isForked": true,
    "top_left_border_color": "000000a5",
    "top_left_border_style": "plain",
    "top_left_border_width": 1,
    "top_right_border_color": "000000a5",
    "top_right_border_style": "plain",
    "top_right_border_width": 1
  },
  "font_color": "050505ff",
  "font_name": "iphoneSystem",
  "font_size": 150,
  "font_style": "normal",
  "font_weight": "normal",
  "ipad": {
    "background_color": {
      "angle": 180,
      "colors": [
        "bcecfcff",
        "79bbffff",
        "1668baff"
      ],
      "cs": [
        0,
        43,
        85
      ],
      "gradientType": "toBottom",
      "gt": "linear"
    },
    "background_style": "linear",
    "bg_type": "ms_gradient",
    "border_color": "00000099",
    "border_style": "rc",
    "border_type": 0,
    "border_width": 2,
    "font_name": "System-Bold",
    "isForked": true
  },
  "iphone": {
    "background_color": {
      "angle": 180,
      "colors": [
        "bcecfcff",
        "79bbffff",
        "1668baff"
      ],
      "cs": [
        0,
        43,
        85
      ],
      "gradientType": "toBottom",
      "gt": "linear"
    },
    "background_style": "linear",
    "bg_type": "ms_gradient",
    "border_color": "00000099",
    "border_style": "rc",
    "border_type": 0,
    "border_width": 2,
    "font_name": "System-Bold",
    "isForked": true
  },
  "isDefaultSkin": false,
  "kiosk": {
    "background_color": {
      "angle": 180,
      "colors": [
        "bcecfcff",
        "79bbffff",
        "1668baff"
      ],
      "cs": [
        0,
        43,
        85
      ],
      "gradientType": "toBottom",
      "gt": "linear"
    },
    "background_style": "linear",
    "bg_type": "ms_gradient",
    "border_color": "00000099",
    "border_style": "rc",
    "border_type": 0,
    "border_width": 2,
    "font_name": "None",
    "isForked": true
  },
  "kuid": "s994470cd32348eab6ba3ee4bca9c220",
  "spaan": {
    "background_color": {
      "angle": 180,
      "colors": [
        "bcecfcff",
        "79bbffff",
        "1668baff"
      ],
      "cs": [
        0,
        43,
        85
      ],
      "gradientType": "toBottom",
      "gt": "linear"
    },
    "background_style": "linear",
    "bg_type": "ms_gradient",
    "bottom_left_border_color": "000000a5",
    "bottom_left_border_style": "plain",
    "bottom_left_border_width": 1,
    "bottom_right_border_color": "000000a5",
    "bottom_right_border_style": "plain",
    "bottom_right_border_width": 1,
    "font_name": "Arial",
    "isForked": true,
    "top_left_border_color": "000000a5",
    "top_left_border_style": "plain",
    "top_left_border_width": 1,
    "top_right_border_color": "000000a5",
    "top_right_border_style": "plain",
    "top_right_border_width": 1
  },
  "spaandroidtablet": {
    "background_color": {
      "angle": 180,
      "colors": [
        "bcecfcff",
        "79bbffff",
        "1668baff"
      ],
      "cs": [
        0,
        43,
        85
      ],
      "gradientType": "toBottom",
      "gt": "linear"
    },
    "background_style": "linear",
    "bg_type": "ms_gradient",
    "bottom_left_border_color": "000000a5",
    "bottom_left_border_style": "plain",
    "bottom_left_border_width": 1,
    "bottom_right_border_color": "000000a5",
    "bottom_right_border_style": "plain",
    "bottom_right_border_width": 1,
    "font_name": "Arial",
    "isForked": true,
    "top_left_border_color": "000000a5",
    "top_left_border_style": "plain",
    "top_left_border_width": 1,
    "top_right_border_color": "000000a5",
    "top_right_border_style": "plain",
    "top_right_border_width": 1
  },
  "spabb": {
    "background_color": {
      "angle": 180,
      "colors": [
        "bcecfcff",
        "79bbffff",
        "1668baff"
      ],
      "cs": [
        0,
        43,
        85
      ],
      "gradientType": "toBottom",
      "gt": "linear"
    },
    "background_style": "linear",
    "bg_type": "ms_gradient",
    "bottom_left_border_color": "000000a5",
    "bottom_left_border_style": "plain",
    "bottom_left_border_width": 1,
    "bottom_right_border_color": "000000a5",
    "bottom_right_border_style": "plain",
    "bottom_right_border_width": 1,
    "font_name": "Arial",
    "isForked": true,
    "top_left_border_color": "000000a5",
    "top_left_border_style": "plain",
    "top_left_border_width": 1,
    "top_right_border_color": "000000a5",
    "top_right_border_style": "plain",
    "top_right_border_width": 1
  },
  "spaip": {
    "background_color": {
      "angle": 180,
      "colors": [
        "bcecfcff",
        "79bbffff",
        "1668baff"
      ],
      "cs": [
        0,
        43,
        85
      ],
      "gradientType": "toBottom",
      "gt": "linear"
    },
    "background_style": "linear",
    "bg_type": "ms_gradient",
    "bottom_left_border_color": "000000a5",
    "bottom_left_border_style": "plain",
    "bottom_left_border_width": 1,
    "bottom_right_border_color": "000000a5",
    "bottom_right_border_style": "plain",
    "bottom_right_border_width": 1,
    "font_name": "Arial",
    "isForked": true,
    "top_left_border_color": "000000a5",
    "top_left_border_style": "plain",
    "top_left_border_width": 1,
    "top_right_border_color": "000000a5",
    "top_right_border_style": "plain",
    "top_right_border_width": 1
  },
  "spaipad": {
    "background_color": {
      "angle": 180,
      "colors": [
        "bcecfcff",
        "79bbffff",
        "1668baff"
      ],
      "cs": [
        0,
        43,
        85
      ],
      "gradientType": "toBottom",
      "gt": "linear"
    },
    "background_style": "linear",
    "bg_type": "ms_gradient",
    "bottom_left_border_color": "000000a5",
    "bottom_left_border_style": "plain",
    "bottom_left_border_width": 1,
    "bottom_right_border_color": "000000a5",
    "bottom_right_border_style": "plain",
    "bottom_right_border_width": 1,
    "font_name": "Arial",
    "isForked": true,
    "top_left_border_color": "000000a5",
    "top_left_border_style": "plain",
    "top_left_border_width": 1,
    "top_right_border_color": "000000a5",
    "top_right_border_style": "plain",
    "top_right_border_width": 1
  },
  "spawindowstablet": {
    "background_color": {
      "angle": 180,
      "colors": [
        "bcecfcff",
        "79bbffff",
        "1668baff"
      ],
      "cs": [
        0,
        43,
        85
      ],
      "gradientType": "toBottom",
      "gt": "linear"
    },
    "background_style": "linear",
    "bg_type": "ms_gradient",
    "bottom_left_border_color": "000000a5",
    "bottom_left_border_style": "plain",
    "bottom_left_border_width": 1,
    "bottom_right_border_color": "000000a5",
    "bottom_right_border_style": "plain",
    "bottom_right_border_width": 1,
    "font_name": "Arial",
    "isForked": true,
    "top_left_border_color": "000000a5",
    "top_left_border_style": "plain",
    "top_left_border_width": 1,
    "top_right_border_color": "000000a5",
    "top_right_border_style": "plain",
    "top_right_border_width": 1
  },
  "spawinphone8": {
    "background_color": {
      "angle": 180,
      "colors": [
        "bcecfcff",
        "79bbffff",
        "1668baff"
      ],
      "cs": [
        0,
        43,
        85
      ],
      "gradientType": "toBottom",
      "gt": "linear"
    },
    "background_style": "linear",
    "bg_type": "ms_gradient",
    "bottom_left_border_color": "000000a5",
    "bottom_left_border_style": "plain",
    "bottom_left_border_width": 1,
    "bottom_right_border_color": "000000a5",
    "bottom_right_border_style": "plain",
    "bottom_right_border_width": 1,
    "font_name": "Arial",
    "isForked": true,
    "top_left_border_color": "000000a5",
    "top_left_border_style": "plain",
    "top_left_border_width": 1,
    "top_right_border_color": "000000a5",
    "top_right_border_style": "plain",
    "top_right_border_width": 1
  },
  "tabrcandroid": {
    "background_color": {
      "angle": 180,
      "colors": [
        "bcecfcff",
        "79bbffff",
        "1668baff"
      ],
      "cs": [
        0,
        43,
        85
      ],
      "gradientType": "toBottom",
      "gt": "linear"
    },
    "background_style": "linear",
    "bg_type": "ms_gradient",
    "border_color": "00000099",
    "border_style": "rc",
    "border_type": 0,
    "border_width": 2,
    "font_name": "default",
    "isForked": true
  },
  "wType": "Button",
  "watchos": {
    "font_name": "Arial",
    "isForked": true
  },
  "windows8": {
    "background_color": {
      "angle": 180,
      "colors": [
        "bcecfcff",
        "79bbffff",
        "1668baff"
      ],
      "cs": [
        0,
        43,
        85
      ],
      "gradientType": "toBottom",
      "gt": "linear"
    },
    "background_style": "linear",
    "bg_type": "ms_gradient",
    "border_color": "00000099",
    "border_style": "rc",
    "border_type": 0,
    "border_width": 2,
    "font_name": "None",
    "isForked": true
  },
  "winphone8": {
    "background_color": {
      "angle": 180,
      "colors": [
        "bcecfcff",
        "79bbffff",
        "1668baff"
      ],
      "cs": [
        0,
        43,
        85
      ],
      "gradientType": "toBottom",
      "gt": "linear"
    },
    "background_style": "linear",
    "bg_type": "ms_gradient",
    "border_color": "00000099",
    "border_style": "rc",
    "border_type": 0,
    "border_width": 2,
    "font_name": "None",
    "isForked": true
  }
}