{
  "android": {
    "background_color": {
      "angle": 180,
      "colors": [
        "bcecfcff",
        "9dd0f2ff",
        "5c90c4ff",
        "4183e0ff"
      ],
      "cs": [
        1,
        11,
        40,
        73
      ],
      "gradientType": "toBottom",
      "gt": "linear"
    },
    "background_style": "linear",
    "bg_type": "ms_gradient",
    "border_style": "rc",
    "font_color": "fafafaff",
    "font_name": "default",
    "isForked": true,
    "text_shadow": {
      "br": 0,
      "color": "000000",
      "nm": 0,
      "x": 0,
      "y": 0
    }
  },
  "androidwearos": {
    "background_color": {
      "angle": 180,
      "colors": [
        "bcecfcff",
        "9dd0f2ff",
        "5c90c4ff",
        "4183e0ff"
      ],
      "cs": [
        1,
        11,
        40,
        73
      ],
      "gradientType": "toBottom",
      "gt": "linear"
    },
    "background_style": "linear",
    "bg_type": "ms_gradient",
    "border_style": "rc",
    "font_color": "fafafaff",
    "font_name": "default",
    "isForked": true,
    "text_shadow": {
      "br": 0,
      "color": "000000",
      "nm": 0,
      "x": 0,
      "y": 0
    }
  },
  "background_color": "4b88f1ff",
  "bg_type": "one",
  "border_color": "030303ff",
  "border_radius": 50,
  "border_style": "custom",
  "border_type": 0,
  "border_width": 2,
  "desktopweb": {
    "background_color": {
      "angle": 180,
      "colors": [
        "bcecfcff",
        "9dd0f2ff",
        "5c90c4ff",
        "4183e0ff"
      ],
      "cs": [
        1,
        11,
        40,
        73
      ],
      "gradientType": "toBottom",
      "gt": "linear"
    },
    "background_style": "linear",
    "bg_type": "ms_gradient",
    "bottom_left_border_color": "030303ff",
    "bottom_left_border_style": "plain",
    "bottom_left_border_width": 2,
    "bottom_right_border_color": "030303ff",
    "bottom_right_border_style": "plain",
    "bottom_right_border_width": 2,
    "font_color": "fafafaff",
    "font_name": "Helvetica",
    "isForked": true,
    "text_shadow": {
      "br": 0,
      "color": "000000",
      "nm": 0,
      "x": 0,
      "y": 0
    },
    "top_left_border_color": "030303ff",
    "top_left_border_style": "plain",
    "top_left_border_width": 2,
    "top_right_border_color": "030303ff",
    "top_right_border_style": "plain",
    "top_right_border_width": 2
  },
  "font_color": "ffffffff",
  "font_name": "iphoneSystem",
  "font_size": 150,
  "font_style": "normal",
  "font_weight": "normal",
  "ipad": {
    "background_color": {
      "angle": 180,
      "colors": [
        "bcecfcff",
        "9dd0f2ff",
        "5c90c4ff",
        "4183e0ff"
      ],
      "cs": [
        1,
        11,
        40,
        73
      ],
      "gradientType": "toBottom",
      "gt": "linear"
    },
    "background_style": "linear",
    "bg_type": "ms_gradient",
    "border_style": "rc",
    "font_color": "fafafaff",
    "font_name": "System",
    "isForked": true,
    "text_shadow": {
      "br": 0,
      "color": "000000",
      "nm": 0,
      "x": 0,
      "y": 0
    }
  },
  "iphone": {
    "background_color": {
      "angle": 180,
      "colors": [
        "bcecfcff",
        "9dd0f2ff",
        "5c90c4ff",
        "4183e0ff"
      ],
      "cs": [
        1,
        11,
        40,
        73
      ],
      "gradientType": "toBottom",
      "gt": "linear"
    },
    "background_style": "linear",
    "bg_type": "ms_gradient",
    "border_style": "rc",
    "font_color": "fafafaff",
    "font_name": "System",
    "isForked": true,
    "text_shadow": {
      "br": 0,
      "color": "000000",
      "nm": 0,
      "x": 0,
      "y": 0
    }
  },
  "isDefaultSkin": false,
  "kiosk": {
    "background_color": {
      "angle": 180,
      "colors": [
        "bcecfcff",
        "9dd0f2ff",
        "5c90c4ff",
        "4183e0ff"
      ],
      "cs": [
        1,
        11,
        40,
        73
      ],
      "gradientType": "toBottom",
      "gt": "linear"
    },
    "background_style": "linear",
    "bg_type": "ms_gradient",
    "border_style": "rc",
    "font_color": "fafafaff",
    "font_name": "None",
    "isForked": true
  },
  "kuid": "sf6c44cec8fe450ea5482f17b3daf4ce",
  "spaan": {
    "background_color": {
      "angle": 180,
      "colors": [
        "bcecfcff",
        "9dd0f2ff",
        "5c90c4ff",
        "4183e0ff"
      ],
      "cs": [
        1,
        11,
        40,
        73
      ],
      "gradientType": "toBottom",
      "gt": "linear"
    },
    "background_style": "linear",
    "bg_type": "ms_gradient",
    "bottom_left_border_color": "030303ff",
    "bottom_left_border_style": "plain",
    "bottom_left_border_width": 2,
    "bottom_right_border_color": "030303ff",
    "bottom_right_border_style": "plain",
    "bottom_right_border_width": 2,
    "font_color": "fafafaff",
    "font_name": "Helvetica",
    "isForked": true,
    "text_shadow": {
      "br": 0,
      "color": "000000",
      "nm": 0,
      "x": 0,
      "y": 0
    },
    "top_left_border_color": "030303ff",
    "top_left_border_style": "plain",
    "top_left_border_width": 2,
    "top_right_border_color": "030303ff",
    "top_right_border_style": "plain",
    "top_right_border_width": 2
  },
  "spaandroidtablet": {
    "background_color": {
      "angle": 180,
      "colors": [
        "bcecfcff",
        "9dd0f2ff",
        "5c90c4ff",
        "4183e0ff"
      ],
      "cs": [
        1,
        11,
        40,
        73
      ],
      "gradientType": "toBottom",
      "gt": "linear"
    },
    "background_style": "linear",
    "bg_type": "ms_gradient",
    "bottom_left_border_color": "030303ff",
    "bottom_left_border_style": "plain",
    "bottom_left_border_width": 2,
    "bottom_right_border_color": "030303ff",
    "bottom_right_border_style": "plain",
    "bottom_right_border_width": 2,
    "font_color": "fafafaff",
    "font_name": "Helvetica",
    "isForked": true,
    "text_shadow": {
      "br": 0,
      "color": "000000",
      "nm": 0,
      "x": 0,
      "y": 0
    },
    "top_left_border_color": "030303ff",
    "top_left_border_style": "plain",
    "top_left_border_width": 2,
    "top_right_border_color": "030303ff",
    "top_right_border_style": "plain",
    "top_right_border_width": 2
  },
  "spabb": {
    "background_color": {
      "angle": 180,
      "colors": [
        "bcecfcff",
        "9dd0f2ff",
        "5c90c4ff",
        "4183e0ff"
      ],
      "cs": [
        1,
        11,
        40,
        73
      ],
      "gradientType": "toBottom",
      "gt": "linear"
    },
    "background_style": "linear",
    "bg_type": "ms_gradient",
    "bottom_left_border_color": "030303ff",
    "bottom_left_border_style": "plain",
    "bottom_left_border_width": 2,
    "bottom_right_border_color": "030303ff",
    "bottom_right_border_style": "plain",
    "bottom_right_border_width": 2,
    "font_color": "fafafaff",
    "font_name": "Helvetica",
    "isForked": true,
    "text_shadow": {
      "br": 0,
      "color": "000000",
      "nm": 0,
      "x": 0,
      "y": 0
    },
    "top_left_border_color": "030303ff",
    "top_left_border_style": "plain",
    "top_left_border_width": 2,
    "top_right_border_color": "030303ff",
    "top_right_border_style": "plain",
    "top_right_border_width": 2
  },
  "spaip": {
    "background_color": {
      "angle": 180,
      "colors": [
        "bcecfcff",
        "9dd0f2ff",
        "5c90c4ff",
        "4183e0ff"
      ],
      "cs": [
        1,
        11,
        40,
        73
      ],
      "gradientType": "toBottom",
      "gt": "linear"
    },
    "background_style": "linear",
    "bg_type": "ms_gradient",
    "bottom_left_border_color": "030303ff",
    "bottom_left_border_style": "plain",
    "bottom_left_border_width": 2,
    "bottom_right_border_color": "030303ff",
    "bottom_right_border_style": "plain",
    "bottom_right_border_width": 2,
    "font_color": "fafafaff",
    "font_name": "Helvetica",
    "isForked": true,
    "text_shadow": {
      "br": 0,
      "color": "000000",
      "nm": 0,
      "x": 0,
      "y": 0
    },
    "top_left_border_color": "030303ff",
    "top_left_border_style": "plain",
    "top_left_border_width": 2,
    "top_right_border_color": "030303ff",
    "top_right_border_style": "plain",
    "top_right_border_width": 2
  },
  "spaipad": {
    "background_color": {
      "angle": 180,
      "colors": [
        "bcecfcff",
        "9dd0f2ff",
        "5c90c4ff",
        "4183e0ff"
      ],
      "cs": [
        1,
        11,
        40,
        73
      ],
      "gradientType": "toBottom",
      "gt": "linear"
    },
    "background_style": "linear",
    "bg_type": "ms_gradient",
    "bottom_left_border_color": "030303ff",
    "bottom_left_border_style": "plain",
    "bottom_left_border_width": 2,
    "bottom_right_border_color": "030303ff",
    "bottom_right_border_style": "plain",
    "bottom_right_border_width": 2,
    "font_color": "fafafaff",
    "font_name": "Helvetica",
    "isForked": true,
    "text_shadow": {
      "br": 0,
      "color": "000000",
      "nm": 0,
      "x": 0,
      "y": 0
    },
    "top_left_border_color": "030303ff",
    "top_left_border_style": "plain",
    "top_left_border_width": 2,
    "top_right_border_color": "030303ff",
    "top_right_border_style": "plain",
    "top_right_border_width": 2
  },
  "spawindowstablet": {
    "background_color": {
      "angle": 180,
      "colors": [
        "bcecfcff",
        "9dd0f2ff",
        "5c90c4ff",
        "4183e0ff"
      ],
      "cs": [
        1,
        11,
        40,
        73
      ],
      "gradientType": "toBottom",
      "gt": "linear"
    },
    "background_style": "linear",
    "bg_type": "ms_gradient",
    "bottom_left_border_color": "030303ff",
    "bottom_left_border_style": "plain",
    "bottom_left_border_width": 2,
    "bottom_right_border_color": "030303ff",
    "bottom_right_border_style": "plain",
    "bottom_right_border_width": 2,
    "font_color": "fafafaff",
    "font_name": "Helvetica",
    "isForked": true,
    "text_shadow": {
      "br": 0,
      "color": "000000",
      "nm": 0,
      "x": 0,
      "y": 0
    },
    "top_left_border_color": "030303ff",
    "top_left_border_style": "plain",
    "top_left_border_width": 2,
    "top_right_border_color": "030303ff",
    "top_right_border_style": "plain",
    "top_right_border_width": 2
  },
  "spawinphone8": {
    "background_color": {
      "angle": 180,
      "colors": [
        "bcecfcff",
        "9dd0f2ff",
        "5c90c4ff",
        "4183e0ff"
      ],
      "cs": [
        1,
        11,
        40,
        73
      ],
      "gradientType": "toBottom",
      "gt": "linear"
    },
    "background_style": "linear",
    "bg_type": "ms_gradient",
    "bottom_left_border_color": "030303ff",
    "bottom_left_border_style": "plain",
    "bottom_left_border_width": 2,
    "bottom_right_border_color": "030303ff",
    "bottom_right_border_style": "plain",
    "bottom_right_border_width": 2,
    "font_color": "fafafaff",
    "font_name": "Helvetica",
    "isForked": true,
    "text_shadow": {
      "br": 0,
      "color": "000000",
      "nm": 0,
      "x": 0,
      "y": 0
    },
    "top_left_border_color": "030303ff",
    "top_left_border_style": "plain",
    "top_left_border_width": 2,
    "top_right_border_color": "030303ff",
    "top_right_border_style": "plain",
    "top_right_border_width": 2
  },
  "tabrcandroid": {
    "background_color": {
      "angle": 180,
      "colors": [
        "bcecfcff",
        "9dd0f2ff",
        "5c90c4ff",
        "4183e0ff"
      ],
      "cs": [
        1,
        11,
        40,
        73
      ],
      "gradientType": "toBottom",
      "gt": "linear"
    },
    "background_style": "linear",
    "bg_type": "ms_gradient",
    "border_style": "rc",
    "font_color": "fafafaff",
    "font_name": "default",
    "isForked": true,
    "text_shadow": {
      "br": 0,
      "color": "000000",
      "nm": 0,
      "x": 0,
      "y": 0
    }
  },
  "wType": "Button",
  "watchos": {
    "font_color": "0d0c0dff",
    "font_name": "System",
    "isForked": true
  },
  "windows8": {
    "background_color": {
      "angle": 180,
      "colors": [
        "bcecfcff",
        "9dd0f2ff",
        "5c90c4ff",
        "4183e0ff"
      ],
      "cs": [
        1,
        11,
        40,
        73
      ],
      "gradientType": "toBottom",
      "gt": "linear"
    },
    "background_style": "linear",
    "bg_type": "ms_gradient",
    "border_style": "rc",
    "font_color": "fafafaff",
    "font_name": "None",
    "isForked": true
  },
  "winphone8": {
    "background_color": {
      "angle": 180,
      "colors": [
        "bcecfcff",
        "9dd0f2ff",
        "5c90c4ff",
        "4183e0ff"
      ],
      "cs": [
        1,
        11,
        40,
        73
      ],
      "gradientType": "toBottom",
      "gt": "linear"
    },
    "background_style": "linear",
    "bg_type": "ms_gradient",
    "border_style": "rc",
    "font_color": "fafafaff",
    "font_name": "None",
    "isForked": true
  }
}