{
    "AS_Button_cd69f19a3037408a8e857accd5a08831": {
        "id": "AS_Button_cd69f19a3037408a8e857accd5a08831",
        "type": "ACTION_SEQUENCE",
        "params": [{
            "datatype": "collection",
            "name": "eventobject"
        }],
        "language": "js",
        "actions": []
    }
}