{
    "AS_Button_j230a0317fa94791b7649dee83824f12": {
        "id": "AS_Button_j230a0317fa94791b7649dee83824f12",
        "type": "ACTION_SEQUENCE",
        "params": [{
            "datatype": "collection",
            "name": "eventobject"
        }],
        "contextObj": {
            "name": "uwu5e2917e16454b65afcafb354ba94e0f",
            "type": "userwidgets",
            "KUID": "u5e2917e16454b65afcafb354ba94e0f"
        },
        "language": "js",
        "actions": []
    }
}