{
    "AS_Button_d7cb635ef00046248a9642bd7b38edfe": {
        "id": "AS_Button_d7cb635ef00046248a9642bd7b38edfe",
        "type": "ACTION_SEQUENCE",
        "params": [{
            "datatype": "collection",
            "name": "eventobject"
        }],
        "contextObj": {
            "name": "frmHome",
            "type": "forms",
            "platform": "",
            "KUID": "c1f3a4ef1e9d4002a77cc24b582ff7a8"
        },
        "language": "js",
        "actions": [{
            "id": "MOVE_ACTION____e35e124eed4546359188578e4b0a575d",
            "type": "MOVE_ACTION",
            "itemType": "FORM",
            "itemId": "frmHome",
            "widgetId": "Menu",
            "itemKUID": "c1f3a4ef1e9d4002a77cc24b582ff7a8",
            "widgetKUID": "c961be7f788c4fcfa7bdce34d2cb4a6c",
            "wType": "UserWidgetInstance",
            "animationObject": {
                "left": "0%",
                "anchorPoint": {},
                "stepConfig": {
                    "timingFunction": "kony.anim.EASE"
                }
            },
            "config": {
                "delay": "0",
                "iterationCount": 1,
                "fillMode": "kony.anim.FILL_MODE_FORWARDS",
                "duration": "250"
            },
            "start": "Immediately",
            "animationId": "MOVE_ACTION____e35e124eed4546359188578e4b0a575d",
            "displayAnimationId": "MOVE_ACTION____e35e124eed4546359188578e4b0a575d",
            "forkedPlatform": "all",
            "parentId": null,
            "callbackType": null,
            "widgetPath": "this.view.Menu"
        }]
    }
}