{
    "AS_Button_d46524b837fc42de8102ec0dcb27833f": {
        "id": "AS_Button_d46524b837fc42de8102ec0dcb27833f",
        "type": "ACTION_SEQUENCE",
        "params": [{
            "datatype": "collection",
            "name": "eventobject"
        }],
        "contextObj": {
            "name": "frmHome",
            "type": "forms",
            "platform": "",
            "KUID": "c1f3a4ef1e9d4002a77cc24b582ff7a8"
        },
        "language": "js",
        "actions": [{
            "id": "MOVE_ACTION____j563954d776145829eb2299903b31ee7",
            "type": "MOVE_ACTION",
            "itemType": "FORM",
            "itemId": "frmHome",
            "widgetId": "flxSearch",
            "itemKUID": "c1f3a4ef1e9d4002a77cc24b582ff7a8",
            "widgetKUID": "a2a7fc68f94f4bca963ad02ba5843e6f",
            "wType": "FlexContainer",
            "animationObject": {
                "left": "100%",
                "anchorPoint": {},
                "stepConfig": {
                    "timingFunction": "kony.anim.EASE"
                }
            },
            "config": {
                "delay": "0",
                "iterationCount": 1,
                "fillMode": "kony.anim.FILL_MODE_FORWARDS",
                "duration": "2000"
            },
            "start": "Immediately",
            "animationId": "MOVE_ACTION____j563954d776145829eb2299903b31ee7",
            "displayAnimationId": "MOVE_ACTION____j563954d776145829eb2299903b31ee7",
            "forkedPlatform": "all",
            "parentId": null,
            "callbackType": null,
            "widgetPath": "this.view.flxSearch"
        }, {
            "id": "MOVE_ACTION____d5e5f24917ec42a58deda19a6d2ac0ae",
            "type": "MOVE_ACTION",
            "itemType": "FORM",
            "itemId": "frmHome",
            "widgetId": "flxCrumbs",
            "itemKUID": "c1f3a4ef1e9d4002a77cc24b582ff7a8",
            "widgetKUID": "i19bf4cc3dd5440c83c89e7345545647",
            "wType": "FlexContainer",
            "animationObject": {
                "top": "0%",
                "anchorPoint": {},
                "stepConfig": {
                    "timingFunction": "kony.anim.EASE"
                }
            },
            "config": {
                "delay": "0",
                "iterationCount": 1,
                "fillMode": "kony.anim.FILL_MODE_FORWARDS",
                "duration": "2000"
            },
            "start": "Immediately",
            "parentAnimation": "MOVE_ACTION____j563954d776145829eb2299903b31ee7",
            "animationId": "MOVE_ACTION____d5e5f24917ec42a58deda19a6d2ac0ae",
            "displayAnimationId": "MOVE_ACTION____d5e5f24917ec42a58deda19a6d2ac0ae",
            "forkedPlatform": "all",
            "parentId": null,
            "callbackType": null,
            "widgetPath": "this.view.flxCrumbs"
        }]
    }
}