{
    "AS_Button_b85c749ceada45d59d5842c95e13798c": {
        "id": "AS_Button_b85c749ceada45d59d5842c95e13798c",
        "type": "ACTION_SEQUENCE",
        "params": [{
            "datatype": "collection",
            "name": "eventobject"
        }],
        "contextObj": {
            "name": "frmHome",
            "type": "forms",
            "platform": "",
            "KUID": "c1f3a4ef1e9d4002a77cc24b582ff7a8"
        },
        "language": "js",
        "actions": [{
            "id": "MOVE_ACTION____d53fef933b8f4dda845a3f2d908b6c74",
            "type": "MOVE_ACTION",
            "itemType": "FORM",
            "itemId": "frmHome",
            "widgetId": "flxMain",
            "itemKUID": "c1f3a4ef1e9d4002a77cc24b582ff7a8",
            "widgetKUID": "j4f27a2d67374dbba7427491d2af522f",
            "wType": "FlexContainer",
            "animationObject": {
                "left": "80%",
                "anchorPoint": {},
                "stepConfig": {
                    "timingFunction": "kony.anim.EASE"
                }
            },
            "config": {
                "delay": "0",
                "iterationCount": 1,
                "fillMode": "kony.anim.FILL_MODE_FORWARDS",
                "duration": "250"
            },
            "start": "Immediately",
            "animationId": "MOVE_ACTION____d53fef933b8f4dda845a3f2d908b6c74",
            "displayAnimationId": "MOVE_ACTION____d53fef933b8f4dda845a3f2d908b6c74",
            "forkedPlatform": "all",
            "parentId": null,
            "callbackType": null,
            "widgetPath": "this.view.flxMain"
        }]
    }
}