{
    "AS_Button_i6e28f004ade439790f2aa20897f4702": {
        "id": "AS_Button_i6e28f004ade439790f2aa20897f4702",
        "type": "ACTION_SEQUENCE",
        "params": [{
            "datatype": "collection",
            "name": "eventobject"
        }],
        "contextObj": {
            "name": "frmHome",
            "type": "forms",
            "platform": "",
            "KUID": "c1f3a4ef1e9d4002a77cc24b582ff7a8"
        },
        "language": "js",
        "actions": []
    }
}