{
    "AS_FlexContainer_e7591e71d7a145928baf540ced27fd5d": {
        "id": "AS_FlexContainer_e7591e71d7a145928baf540ced27fd5d",
        "type": "ACTION_SEQUENCE",
        "params": [{
            "datatype": "collection",
            "name": "eventobject"
        }, {
            "datatype": "string",
            "name": "x"
        }, {
            "datatype": "string",
            "name": "y"
        }],
        "contextObj": {
            "name": "frmHome",
            "type": "forms",
            "platform": "",
            "KUID": "c1f3a4ef1e9d4002a77cc24b582ff7a8"
        },
        "language": "js",
        "actions": []
    }
}