{
    "AS_ListBox_abef64c27869483b8103cf3510b4c7e1": {
        "id": "AS_ListBox_abef64c27869483b8103cf3510b4c7e1",
        "type": "ACTION_SEQUENCE",
        "params": [{
            "datatype": "collection",
            "name": "eventobject"
        }],
        "contextObj": {
            "name": "frmProductImages",
            "type": "forms",
            "platform": "",
            "KUID": "b4b3807903054869a690da3f39f302c4"
        },
        "language": "js",
        "actions": [{
            "id": "ADD_SNIPPET__ieb7a867448d4047997af562e42f1c06",
            "type": "ADD_SNIPPET",
            "codeSnippet": "this.view.productImage.src = this.view.selectedImage.selectedKeyValue[0];",
            "parentId": null,
            "callbackType": null
        }]
    }
}