{
    "AS_Map_i9baf83b49a248d3ab7b92da6d92e650": {
        "id": "AS_Map_i9baf83b49a248d3ab7b92da6d92e650",
        "type": "ACTION_SEQUENCE",
        "params": [{
            "datatype": "collection",
            "name": "eventobject"
        }, {
            "datatype": "string",
            "name": "location"
        }],
        "contextObj": {
            "name": "frmStoreLocator",
            "type": "forms",
            "platform": "",
            "KUID": "h7c5b04462ff4b4f801af485c2ebc28f"
        },
        "language": "js",
        "actions": []
    }
}