{
    "AS_TextField_ce46814e34e94039b2a190be2ed3a1ee": {
        "id": "AS_TextField_ce46814e34e94039b2a190be2ed3a1ee",
        "type": "ACTION_SEQUENCE",
        "params": [{
            "datatype": "collection",
            "name": "eventobject"
        }, {
            "datatype": "string",
            "name": "changedtext"
        }],
        "contextObj": {
            "name": "frmHome",
            "type": "forms",
            "platform": "",
            "KUID": "c1f3a4ef1e9d4002a77cc24b582ff7a8"
        },
        "language": "js",
        "actions": [{
            "id": "ADD_SNIPPET__a132c25ca7b84b8592fe622493ac14c0",
            "type": "ADD_SNIPPET",
            "codeSnippet": "var searchInput = this.view.searchTxt.text;\n\nif (inputFilter==\"\"){\n  \n    if (searchInput=='' || searchInput==undefined){\n      \n      showError('Invalid Entry','Please type an item to search.');\n    }else{\n   queryValue = this.view.searchTxt.text;\n    var ntf = new kony.mvc.Navigation('frmProductsList');\n    ntf.navigate();\n      \n    }\n\n}else{\n   \n     if (searchInput=='' || searchInput==undefined){\n      \n      showError('Invalid Entry','Please type an item to search.');\n    }else{\n        queryValue = this.view.searchTxt.text+\"&\"+this.setFilterAttribute(inputFilter);\n\tcategoryPath=this.view.searchTxt.text;\n  \n    var ntf = new kony.mvc.Navigation('frmProductsList');\n    ntf.navigate(); \n      \n    }\n  \n\n  \n}\n",
            "parentId": null,
            "callbackType": null
        }]
    }
}