{
    "@class": "com.kony.gen.viz.model.component.KVizImage2",
    "DNDConfig": null,
    "__parentReadjusting__": false,
    "_base64_": null,
    "_height_": {
        "type": "string",
        "value": "85.25%"
    },
    "_left_": {
        "type": "string",
        "value": "5.83%"
    },
    "_margin_": [
        0,
        0,
        0,
        0
    ],
    "_padding_": [
        0,
        0,
        0,
        0
    ],
    "_skin_": "sc7143c7fc264253926ae209c29f0e5e",
    "_src_": "compass.png",
    "_top_": {
        "type": "string",
        "value": "-0.25%"
    },
    "_width_": {
        "type": "string",
        "value": "29.55%"
    },
    "canUpdateUI": true,
    "containerweight": 100,
    "context": {
        "channel": "mobile",
        "formID": "frmStoreLocator",
        "platform": "android",
        "templateType": "forms",
        "topLevelBox": null
    },
    "id": "imgLocation",
    "imagescalemode": 1,
    "info": null,
    "invokedProperty": "src",
    "iscustomlayout": false,
    "isvisible": true,
    "kuid": "b3a7c9d3191945f3a8fb9829f3d38bff",
    "name": "kony.ui.Image2",
    "parent": "flxTitle",
    "pf": "frmStoreLocator",
    "retaincontentalignment": false,
    "retainflexpositionproperties": false,
    "srcType": 1,
    "wType": "Image",
    "widgetalignment": 5,
    "zindex": 1
}